{
 "history": [
  {
   "date": "Mon Nov 11 2019 18:45:15 GMT-0300 (Brasilia Standard Time)",
   "step": "init"
  }
 ],
 "internal": {
  "currentStep": "fetchAseq",
  "hash": "fc393910ab229b52f4327d27717828b3427901a031fbcd88a8cfcf1da4dcbca7"
 },
 "user": {
  "newickTree": "",
  "settings": {
   "downstream": 3,
   "geneHoodPrefix": "temp-diffStart",
   "stableIds": [
    "GCF_000196175.1-BD_RS15585",
    "GCF_000006765.1-PA1077",
    "GCF_000006765.1-PA1105",
    "GCF_000008485.1-lpg1216"
   ],
   "upstream": 3
  },
  "startingStep": "buildMockPhylogeny",
  "stopStep": ""
 }
}