{
 "history": [
  {
   "date": "Mon Nov 11 2019 18:45:15 GMT-0300 (Brasilia Standard Time)",
   "step": "init"
  },
  {
   "date": "Sat Dec 07 2019 21:27:04 GMT-0300 (Brasilia Standard Time)",
   "step": "fetchData"
  }
 ],
 "internal": {
  "currentStep": "fetchAseq",
  "settingsFingerprint": "34a069a5fc6b292c090000cd1e2e1c7f01793389c79865bf415ced6498f8c7c4"
 },
 "user": {
  "newickTree": "",
  "settings": {
   "downstream": 3,
   "geneHoodPrefix": "existing",
   "stableIds": [
    "GCF_000196175.1-BD_RS15585",
    "GCF_000006765.1-PA1077",
    "GCF_000006765.1-PA1105",
    "GCF_000008485.1-lpg1216"
   ],
   "upstream": 3
  },
  "startingStep": "fetchData",
  "stopStep": ""
 }
}