{
 "history": [
  {
   "date": "Sat Dec 14 2019 15:07:56 GMT-0300 (Brasilia Standard Time)",
   "step": "init"
  }
 ],
 "internal": {
  "cliVersion": "0.2.0-0",
  "currentStep": "fetchData",
  "hash": ""
 },
 "user": {
  "newickTree": "",
  "settings": {
   "downstream": 2,
   "geneHoodPrefix": "init",
   "stableIds": [],
   "upstream": 2
  },
  "startingStep": "fetchData",
  "stopStep": ""
 }
}