{
 "history": [
  {
   "date": "Mon Nov 11 2019 18:45:15 GMT-0300 (Brasilia Standard Time)",
   "step": "init"
  }
 ],
 "internal": {
  "currentStep": "fetchData",
  "settingsFingerprint": "c3bb786f7fa2c7f61fb68a1239947e5830554d74ee99554f640800d575eb5609"
 },
 "user": {
  "newickTree": "",
  "settings": {
   "downstream": 3,
   "geneHoodPrefix": "temp-stop",
   "stableIds": [
     "GCF_000196175.1-BD_RS15585",
     "GCF_000006765.1-PA1077",
     "GCF_000006765.1-PA1105",
     "GCF_000008485.1-lpg1216"
   ],
   "upstream": 3
  },
 "startingStep": "fetchData",
 "stopStep": "makeFasta"
 }
}